2_Periodo/Arquitetura_de_Computadores_1/Guias/Guia_09/Guia_0905.vcd
$date
	Sat Apr 13 16:51:35 2024
$end
$version
	Icarus Verilog
$end
$timescale
	1s
$end
$scope module Guia_0905 $end
$var wire 1 ! clock $end
$upscope $end
$scope module Guia_0905 $end
$var wire 1 " p1 $end
$upscope $end
$scope module Guia_0905 $end
$var wire 1 # p2 $end
$upscope $end
$enddefinitions $end
$comment Show the parameter values. $end
$dumpall
$end
#0
$dumpvars
x#
x"
0!
$end
#12
1#
1!
#14
0#
1"
#16
0"
#18
1"
#20
0"
#22
1"
#24
0"
0!
#26
1"
#28
0"
#30
1"
#32
0"
#34
1"
#36
1#
0"
1!
#38
0#
#48
0!
#60
1#
1!
#62
0#
1"
#64
0"
#66
1"
#68
0"
#70
1"
#72
0"
0!
#74
1"
#76
0"
#78
1"
#80
0"
#82
1"
#84
1#
0"
1!
#86
0#
#96
0!
#108
1#
1!
#110
0#
1"
#112
0"
#114
1"
#116
0"
#118
1"
#120
0"
0!
#122
1"
#124
0"
#126
1"
#128
0"
#130
1"
#132
1#
0"
1!
#134
0#
#144
0!
#156
1#
1!
#158
0#
1"
#160
0"
#162
1"
#164
0"
#166
1"
#168
0"
0!
#170
1"
#172
0"
#174
1"
#176
0"
#178
1"
#180
1#
0"
1!
#182
0#
#192
0!
#204
1#
1!
#206
0#
1"
#208
0"
#210
1"
#212
0"
#214
1"
#216
0"
0!
#218
1"
#220
0"
#222
1"
#224
0"
#226
1"
#228
1#
0"
1!
#230
0#
#240
0!
#252
1#
1!
#254
0#
1"
#256
0"
#258
1"
#260
0"
#262
1"
#264
0"
0!
#266
1"
#268
0"
#270
1"
#272
0"
#274
1"
#276
1#
0"
1!
#278
0#
#288
0!
#300
1#
1!
#302
0#
1"
#304
0"
#306
1"
#308
0"
#310
1"
#312
0"
0!
#314
1"
#316
0"
#318
1"
#320
0"
#322
1"
#324
1#
0"
1!
#326
0#
#336
0!
#348
1#
1!
#350
0#
1"
#352
0"
#354
1"
#356
0"
#358
1"
#360
0"
0!
#362
1"
#364
0"
#366
1"
#368
0"
#370
1"
#372
1#
0"
1!
#374
0#
#384
0!
#396
1#
1!
#398
0#
1"
#400
0"
#402
1"
#404
0"
#406
1"
#408
0"
0!
#410
1"
#412
0"
#414
1"
#416
0"
#418
1"
#420
1#
0"
1!
#422
0#
#432
0!
#444
1#
1!
#446
0#
1"
#448
0"
#450
1"
#452
0"
#454
1"
#456
0"
0!
#458
1"
#460
0"
#462
1"
#464
0"
#466
1"
#468
1#
0"
1!
#470
0#
