2_Periodo/Arquitetura_de_Computadores_1/Guias/Guia_09/Guia_0906.vcd
$date
	Sat Apr 13 17:23:10 2024
$end
$version
	Icarus Verilog
$end
$timescale
	1s
$end
$scope module Guia_0906 $end
$var wire 1 ! clock $end
$upscope $end
$scope module Guia_0906 $end
$var wire 1 " p1 $end
$upscope $end
$enddefinitions $end
$comment Show the parameter values. $end
$dumpall
$end
#0
$dumpvars
x"
0!
$end
#12
1!
#24
0!
#36
1!
#45
1"
#48
0"
0!
#60
1!
#69
1"
#72
0"
0!
#84
1!
#93
1"
#96
0"
0!
#108
1!
#120
0!
#132
1!
#141
1"
#144
0"
0!
#156
1!
#165
1"
#168
0"
0!
#180
1!
#189
1"
#192
0"
0!
#204
1!
#216
0!
#228
1!
#237
1"
#240
0"
0!
#252
1!
#261
1"
#264
0"
0!
#276
1!
#285
1"
#288
0"
0!
#300
1!
#312
0!
#324
1!
#333
1"
#336
0"
0!
#348
1!
#357
1"
#360
0"
0!
#372
1!
#381
1"
#384
0"
0!
#396
1!
#408
0!
#420
1!
#429
1"
#432
0"
0!
#444
1!
#453
1"
#456
0"
0!
#468
1!
#477
1"
#480
0"
0!
